   SIDs         List of problems
----------      ----------------
***001388:	2 4 8 11 20 
***014422:	1 5 8 12 19 
***015944:	1 2 5 9 11 
***019096:	1 10 13 16 18 
***020397:	8 9 10 17 19 
***021339:	1 8 10 15 20 
***089113:	3 5 6 14 20 
***098071:	3 6 12 13 16 
***099091:	7 8 12 13 16 
***100556:	1 3 10 12 19 
***102396:	2 8 9 11 20 
***103123:	2 3 6 7 12 
***105413:	1 7 11 18 20 
***105424:	3 9 10 14 17 
***106280:	10 11 14 18 20 
***109269:	2 6 11 13 14 
***110410:	1 4 14 17 18 
***114239:	1 2 4 12 16 
***114678:	2 3 10 15 20 
***115287:	2 4 5 11 13 
***120372:	3 4 6 15 18 
***123958:	7 9 13 14 20 
***124511:	2 3 6 16 20 
***125492:	1 11 15 18 20 
***127478:	1 11 15 17 20 
***127895:	2 3 8 12 18 
***146715:	3 8 9 15 17 
***148226:	8 11 17 18 20 
***148469:	2 5 6 15 16 
***149188:	4 8 11 16 17 
***153797:	2 9 10 12 19 
***159146:	3 6 8 11 20 
***161057:	3 6 8 16 19 
***166208:	4 9 11 15 18 
***176224:	11 15 16 17 20 
***178786:	2 3 11 16 19 
***180707:	5 7 10 12 18 
***181640:	1 4 7 14 16 
***182304:	2 8 11 12 18 
***184309:	13 14 17 19 20 
***192431:	2 3 5 6 12 
***192602:	1 9 17 18 20 
***196467:	4 5 8 13 18 
***198051:	2 8 9 17 20 
***207517:	1 4 12 13 18 
***208343:	4 5 6 7 11 
***212343:	1 8 13 16 19 
***212779:	10 12 13 16 17 
***212908:	8 9 14 15 17 
***225142:	1 2 3 6 18 
***262528:	5 7 10 16 20 
***299047:	5 6 13 14 16 
***299125:	9 12 13 14 17 
***299127:	7 9 10 14 20 
***299790:	1 7 9 15 18 
***301113:	1 12 16 19 20 
***301406:	1 3 16 18 19 
***303123:	6 7 10 15 17 
***304107:	1 3 9 10 15 
***304148:	1 4 8 14 18 
***304247:	2 8 9 12 20 
***304479:	12 15 17 19 20 
***307811:	5 6 9 18 19 
***307987:	6 13 16 18 19 
***308664:	4 10 13 17 19 
***310659:	1 17 18 19 20 
***311093:	3 6 11 14 17 
***313300:	3 4 8 12 15 
***316865:	2 3 8 13 18 
***317282:	1 5 8 9 18 
***319519:	4 6 12 18 19 
***319920:	3 9 11 14 18 
***321348:	1 3 6 16 18 
***321520:	5 7 13 14 15 
***323189:	4 8 15 16 20 
***324354:	2 3 4 17 20 
***324612:	5 7 14 15 17 
***324983:	2 5 7 10 12 
***325252:	3 6 8 12 17 
***327115:	8 12 13 18 19 
***327667:	1 9 10 11 20 
***328010:	4 7 10 15 20 
***329335:	1 5 7 8 16 
***329643:	1 4 7 14 19 
***329801:	1 6 7 17 18 
***330759:	5 9 10 16 18 
***332388:	6 8 9 15 18 
***332482:	4 5 6 7 18 
***335615:	4 6 9 10 13 
***337096:	2 11 16 18 20 
***339211:	2 3 11 12 18 
***339928:	5 7 15 17 20 
***340620:	4 7 9 12 17 
***340650:	2 4 11 13 19 
***343718:	3 5 6 16 19 
***343991:	7 10 15 16 17 
***344994:	7 9 11 18 20 
***346109:	6 8 12 15 18 
***346177:	3 5 8 12 15 
***348188:	5 6 12 15 18 
***359202:	1 3 15 17 18 
***361249:	6 8 9 11 16 
***367799:	3 8 15 17 18 
***373594:	1 2 12 15 18 
***375418:	1 6 9 14 18 
***375663:	3 12 14 15 20 
***377128:	1 6 14 16 17 
***377225:	5 7 10 13 16 
***379007:	1 7 13 16 17 
***380501:	2 8 11 14 19 
***381322:	1 5 8 13 16 
***382790:	3 8 10 15 16 
***388066:	4 7 13 17 19 
***389002:	1 2 6 13 17 
***390518:	7 8 9 14 19 
***393474:	10 11 13 14 20 
***394545:	6 13 15 18 20 
***394742:	3 4 5 7 14 
***395713:	2 6 13 17 20 
***399973:	4 5 14 16 18 
***401359:	3 4 6 12 17 
***401638:	7 8 11 18 19 
***407000:	5 6 8 11 12 
***409041:	10 13 14 18 19 
***413659:	2 10 12 16 18 
***413835:	1 7 11 15 19 
***413937:	1 11 12 14 19 
***416130:	1 8 9 10 20 
***417287:	3 4 5 12 13 
***418809:	2 5 6 15 17 
***419480:	1 14 16 19 20 
***422766:	2 6 12 14 15 
***423505:	5 6 8 9 17 
***754985:	5 8 10 14 17 
***764158:	1 8 9 15 20 
***798473:	1 5 10 11 19 
***909463:	3 6 7 12 14 
***910260:	3 8 14 16 20 
***914719:	5 10 13 17 19 
***923946:	1 6 7 10 20 
***927657:	2 3 5 8 17 
***934306:	4 5 7 9 12 
***938699:	3 9 11 14 18 
***949409:	1 7 11 12 13 
***964553:	2 3 7 14 19 
***966319:	1 3 4 12 13 
***973464:	1 5 6 16 20 
***975462:	2 4 5 12 14 
***976094:	4 5 6 8 19 
***986163:	4 5 6 12 13 
***990124:	3 7 8 13 18 
***992035:	1 5 12 19 20 
***998800:	4 9 17 19 20 
